nataliesite - Project 2
…
These graphs convey the distrubution of movies for each rating.

netflix |>
  mutate(clean_genres = str_remove_all(netflix$listed_in, ",.*"))

# A tibble: 7,787 × 13
   show_id type    title director   cast  country date_added release_year rating
   <chr>   <chr>   <chr> <chr>      <chr> <chr>   <chr>             <dbl> <chr> 
 1 s1      TV Show 3%    <NA>       João… Brazil  August 14…         2020 TV-MA 
 2 s2      Movie   7:19  Jorge Mic… Demi… Mexico  December …         2016 TV-MA 
 3 s3      Movie   23:59 Gilbert C… Tedd… Singap… December …         2011 R     
 4 s4      Movie   9     Shane Ack… Elij… United… November …         2009 PG-13 
 5 s5      Movie   21    Robert Lu… Jim … United… January 1…         2008 PG-13 
 6 s6      TV Show 46    Serdar Ak… Erda… Turkey  July 1, 2…         2016 TV-MA 
 7 s7      Movie   122   Yasir Al … Amin… Egypt   June 1, 2…         2019 TV-MA 
 8 s8      Movie   187   Kevin Rey… Samu… United… November …         1997 R     
 9 s9      Movie   706   Shravan K… Divy… India   April 1, …         2019 TV-14 
10 s10     Movie   1920  Vikram Bh… Rajn… India   December …         2008 TV-MA 
# ℹ 7,777 more rows
# ℹ 4 more variables: duration <chr>, listed_in <chr>, description <chr>,
#   clean_genres <chr>
…
